…
    ## Warning: There was 1 warning in `mutate()`.
    ## ℹ In argument: `entry = as.integer(entry)`.
    ## Caused by warning:
    ## ! NAs introduced by coercion

``` r
transit_df
```

    ## # A tibble: 1,868 × 19
    ##    line     station_name station_latitude station_longitude route1 route2 route3
    ##    <chr>    <chr>                   <dbl>             <dbl> <chr>  <chr>  <chr> 
    ##  1 4 Avenue 25th St                  40.7             -74.0 R      <NA>   <NA>  
    ##  2 4 Avenue 25th St                  40.7             -74.0 R      <NA>   <NA>  
    ##  3 4 Avenue 36th St                  40.7             -74.0 N      R      <NA>  
    ##  4 4 Avenue 36th St                  40.7             -74.0 N      R      <NA>  
    ##  5 4 Avenue 36th St                  40.7             -74.0 N      R      <NA>  
    ##  6 4 Avenue 45th St                  40.6             -74.0 R      <NA>   <NA>  
    ##  7 4 Avenue 45th St                  40.6             -74.0 R      <NA>   <NA>  
    ##  8 4 Avenue 45th St                  40.6             -74.0 R      <NA>   <NA>  
    ##  9 4 Avenue 45th St                  40.6             -74.0 R      <NA>   <NA>  
    ## 10 4 Avenue 53rd St                  40.6             -74.0 R      <NA>   <NA>  
    ## # ℹ 1,858 more rows
    ## # ℹ 12 more variables: route4 <chr>, route5 <chr>, route6 <chr>, route7 <chr>,
    ## #   route8 <dbl>, route9 <dbl>, route10 <dbl>, route11 <dbl>,
    ## #   entrance_type <chr>, entry <chr>, vending <chr>, ada <lgl>
…
    ## New names:
    ## • `` -> `...15`
    ## • `` -> `...16`

``` r
trash_wheel_df
```

    ## # A tibble: 651 × 12
    ##    dumpster weight_tons volume_cubic_yards plastic_bottles polystyrene
    ##       <dbl>       <dbl>              <dbl>           <dbl>       <dbl>
    ##  1        1        4.31                 18            1450        1820
    ##  2        2        2.74                 13            1120        1030
    ##  3        3        3.45                 15            2450        3100
    ##  4        4        3.1                  15            2380        2730
    ##  5        5        4.06                 18             980         870
    ##  6        6        2.71                 13            1430        2140
    ##  7        7        1.91                  8             910        1090
    ##  8        8        3.7                  16            3580        4310
    ##  9        9        2.52                 14            2400        2790
    ## 10       10        3.76                 18            1340        1730
    ## # ℹ 641 more rows
    ## # ℹ 7 more variables: cigarette_butts <dbl>, glass_bottles <dbl>,
    ## #   plastic_bags <dbl>, wrappers <dbl>, sports_balls <int>,
    ## #   homes_powered <dbl>, sb <int>
…
### Winner Table

``` r
winners_df = filter(clean_data_final, results == "WINNER") %>% 
  select(baker_name, technical, results)

winners_df
```

    ## # A tibble: 83 × 3
    ##    baker_name         technical results
    ##    <chr>                  <int> <chr>  
    ##  1 Annetha Mills             NA WINNER 
    ##  2 David Chambers            NA WINNER 
    ##  3 Edd Kimber                NA WINNER 
    ##  4 Jasminder Randhawa        NA WINNER 
    ##  5 Jonathan Shepherd         NA WINNER 
    ##  6 Lea Harris                NA WINNER 
    ##  7 Louise Brimelow           NA WINNER 
    ##  8 Mark Whithers             NA WINNER 
    ##  9 Miranda Browne            NA WINNER 
    ## 10 Ruth Clemens              NA WINNER 
    ## # ℹ 73 more rows
…
